{
  "cookiecutter": {
    "project_name": "Hello",
    "project_slug": "hello",
    "description": "A Django sample app",
    "author_name": "Emanuele Aina",
    "domain_name": "example.com",
    "email": "em@nerd.ocracy.org",
    "version": "0.1.0",
    "open_source_license": "MIT",
    "timezone": "UTC",
    "windows": "n",
    "use_pycharm": "n",
    "use_docker": "y",
    "postgresql_version": "12.3",
    "js_task_runner": "None",
    "cloud_provider": "None",
    "mail_service": "Other SMTP",
    "use_async": "n",
    "use_drf": "n",
    "custom_bootstrap_compilation": "n",
    "use_compressor": "y",
    "use_celery": "n",
    "use_mailhog": "n",
    "use_sentry": "n",
    "use_whitenoise": "y",
    "use_heroku": "n",
    "ci_tool": "Gitlab",
    "keep_local_envs_in_vcs": "n",
    "debug": "n",
    "_template": "https://github.com/pydanny/cookiecutter-django"
  }
}
